{
    "plugins": {
        "xunit-reporter": {
            "output": "./test-results/testfile.xml"
        },
        "istanbub": {
            "dir": "./coverage",
            "reporters": ["text-summary", "lcov"],
            "include": [
                "**/*.html"
            ],
            "exclude": [
                "**/test/**"
            ],
            "thresholds": {
                "global": {
                    "statements": 80,
                    "branches": 80,
                    "functions": 80,
                    "lines": 80
                }
            }
        },
        "local": {
            "skipSeleniumInstall": true,
            "disabled": false,
            "browsers": ["chrome"],
            "browserOptions": {
                "chrome": [
                    "start-maximized",
                    "headless",
                    "disable-gpu",
                    "no-sandbox"
                ]
            }
        }
    }
}